<?xml version="1.0" encoding="UTF-8" standalone="no"?>
<svg
   viewBox="0 0 816.37797 1145.1969"
   height="303mm"
   width="216mm"
   xml:space="preserve"
   id="svg2"
   version="1.1"
   sodipodi:docname="achtergrond-links-prepress.svg"
   inkscape:export-filename="C:\Users\Pim\Documents\JDriven\huisstijl\Achtergronden\JDriven_Brochure_2.png"
   inkscape:export-xdpi="1200"
   inkscape:export-ydpi="1200"
   inkscape:version="1.1 (c68e22c387, 2021-05-23)"
   xmlns:inkscape="http://www.inkscape.org/namespaces/inkscape"
   xmlns:sodipodi="http://sodipodi.sourceforge.net/DTD/sodipodi-0.dtd"
   xmlns="http://www.w3.org/2000/svg"
   xmlns:svg="http://www.w3.org/2000/svg"
   xmlns:rdf="http://www.w3.org/1999/02/22-rdf-syntax-ns#"
   xmlns:cc="http://creativecommons.org/ns#"
   xmlns:dc="http://purl.org/dc/elements/1.1/"><sodipodi:namedview
   pagecolor="#ffffff"
   bordercolor="#666666"
   borderopacity="1"
   objecttolerance="10"
   gridtolerance="10"
   guidetolerance="10"
   inkscape:pageopacity="0"
   inkscape:pageshadow="2"
   inkscape:window-width="3440"
   inkscape:window-height="1377"
   id="namedview17"
   showgrid="false"
   inkscape:zoom="15.327233"
   inkscape:cx="8.4490136"
   inkscape:cy="1119.9347"
   inkscape:window-x="-8"
   inkscape:window-y="-8"
   inkscape:window-maximized="1"
   inkscape:current-layer="svg2"
   units="mm"
   inkscape:pagecheckerboard="0"
   inkscape:document-units="mm"
   width="216mm" /><metadata
   id="metadata8"><rdf:RDF><cc:Work
       rdf:about=""><dc:format>image/svg+xml</dc:format><dc:type
         rdf:resource="http://purl.org/dc/dcmitype/StillImage" /></cc:Work></rdf:RDF></metadata><defs
   id="defs6" />



<rect
   style="fill:#fef1f3;fill-opacity:1;stroke:none;stroke-width:1.29549;stroke-linecap:square;stroke-dasharray:0.323876, 0.323876;paint-order:stroke fill markers"
   id="rect601"
   width="816.37799"
   height="49.133858"
   x="-1.3877788e-17"
   y="1096.063" /></svg>
